%YAML 1.1
%TAG !u! tag:unity3d.com,2011:
--- !u!1045 &1
EditorBuildSettings:
  m_ObjectHideFlags: 0
  serializedVersion: 2
  m_Scenes:
  - enabled: 0
    path: Assets/Scenes/SampleScene.unity
    guid: 2cda990e2423bbf4892e6590ba056729

  - enabled: 1
    path: Assets/Scenes/MainGameScene.unity
    guid: c130dc92b04805f48aa77f713c9985de

  m_configObjects: {}
